<svg xmlns="http://www.w3.org/2000/svg" width="742.603" height="512" viewBox="0 0 742.603 512">
  <g id="Groupe_326" data-name="Groupe 326" transform="translate(1042 -7068)">
    <g id="Groupe_325" data-name="Groupe 325">
      <g id="smart-washing-machine" transform="translate(-843 7068)">
        <path id="Tracé_3757" data-name="Tracé 3757" d="M452,0H347L317,165l135-30Z" fill="#5a656b"/>
        <path id="Tracé_3758" data-name="Tracé 3758" d="M256,0,226,165H347V0Z"/>
        <path id="Tracé_3759" data-name="Tracé 3759" d="M165,0,135,165H256V0Z" fill="#292c32"/>
        <path id="Tracé_3760" data-name="Tracé 3760" d="M60,0V135l105,30V0Z" fill="#728287"/>
        <path id="Tracé_3761" data-name="Tracé 3761" d="M256,135,196,323.5,256,512H452V135Z" fill="#8b9ea4"/>
        <rect id="Rectangle_27" data-name="Rectangle 27" width="196" height="377" transform="translate(60 135)" fill="#a3bbc0"/>
        <path id="Tracé_3762" data-name="Tracé 3762" d="M256,187.5l-68,136,68,136a136,136,0,0,0,0-272Z" fill="#41494e"/>
        <path id="Tracé_3763" data-name="Tracé 3763" d="M120,323.5a136,136,0,0,0,136,136v-272A136,136,0,0,0,120,323.5Z" fill="#5a656b"/>
        <path id="Tracé_3764" data-name="Tracé 3764" d="M256,247.5l-38,76,38,76a76,76,0,0,0,0-152Z" fill="#10beff"/>
        <path id="Tracé_3765" data-name="Tracé 3765" d="M180,323.5a76,76,0,0,0,76,76v-152A76,76,0,0,0,180,323.5Z" fill="#08e2ff"/>
        <path id="Tracé_3766" data-name="Tracé 3766" d="M256,52.5l-30,15,30,15h46v-30Z" fill="#5dc75d"/>
        <rect id="Rectangle_28" data-name="Rectangle 28" width="46" height="30" transform="translate(210 52.5)" fill="#aed06d"/>
      </g>
      <g id="iron" transform="translate(-299.397 7338.397) rotate(90)">
        <path id="Tracé_3767" data-name="Tracé 3767" d="M278.071,61h28.284a7.067,7.067,0,0,1,7.071,7.071V89.457a7.067,7.067,0,0,1-7.071,7.071l-28.284,14.191A7.067,7.067,0,0,1,271,103.647V68.071A7.067,7.067,0,0,1,278.071,61Z" transform="translate(-199.818 -61)" fill="#444"/>
        <path id="Tracé_3768" data-name="Tracé 3768" d="M99.51,95.808A131.761,131.761,0,0,1,134.865,91h71.182a21.184,21.184,0,0,1,21.213,21.213v79.054a21.693,21.693,0,0,1-6.223,14.991s-27.294,26.163-29.133,26.163l-78.253,14.142L99.51,244.725.185,232.421C-3.208,167.508,40.4,111.93,99.51,95.808Zm0,58.832h85.324a7,7,0,0,0,7.071-7.071V133.426a7,7,0,0,0-7.071-7.071H113.652a21.422,21.422,0,0,0-21.213,21.213A7,7,0,0,0,99.51,154.639Z" transform="translate(14.098 -76.858)" fill="#00ddc1"/>
        <path id="Tracé_3769" data-name="Tracé 3769" d="M271.185,237.812l99.325,12.3V160.031a7,7,0,0,1-7.071-7.071,20.751,20.751,0,0,1,7.071-15.7V101.2C311.4,117.321,267.792,172.9,271.185,237.812Z" transform="translate(-256.902 -82.249)" fill="#00ccb2"/>
        <path id="Tracé_3770" data-name="Tracé 3770" d="M233.071,299.284a7.067,7.067,0,0,0,7.071-7.071V278.071a7.071,7.071,0,0,0-14.142,0v14.142A7.067,7.067,0,0,0,233.071,299.284Z" transform="translate(-105.321 -172.005)" fill="#5a5a5a"/>
        <g id="Groupe_323" data-name="Groupe 323" transform="translate(64.111 98.995)">
          <path id="Tracé_3771" data-name="Tracé 3771" d="M293.071,299.284a7.067,7.067,0,0,0,7.071-7.071V278.071a7.071,7.071,0,0,0-14.142,0v14.142A7.067,7.067,0,0,0,293.071,299.284Z" transform="translate(-257.716 -271)" fill="#444"/>
          <path id="Tracé_3772" data-name="Tracé 3772" d="M353.071,299.284a7.067,7.067,0,0,0,7.071-7.071V278.071a7.071,7.071,0,0,0-14.142,0v14.142A7.067,7.067,0,0,0,353.071,299.284Z" transform="translate(-346 -271)" fill="#444"/>
        </g>
        <path id="Tracé_3773" data-name="Tracé 3773" d="M30,405.142v7.071a7,7,0,0,0,7.071,7.071H250.145a7,7,0,0,0,7.071-7.071v-7.071A14.184,14.184,0,0,0,243.074,391H44.142A14.184,14.184,0,0,0,30,405.142Z" transform="translate(-30 -235.437)" fill="#e2e2e7"/>
        <path id="Tracé_3774" data-name="Tracé 3774" d="M271,405.142v7.071a7,7,0,0,0,7.071,7.071H384.608V391H285.142A14.184,14.184,0,0,0,271,405.142Z" transform="translate(-271 -235.437)" fill="#d3d3d8"/>
      </g>
      <g id="tv-screen" transform="translate(-1042 7157.11)">
        <g id="Groupe_324" data-name="Groupe 324" transform="translate(201.815 311.268)">
          <path id="Tracé_3775" data-name="Tracé 3775" d="M468.364,368v20.7a7.762,7.762,0,1,0,15.524,0V368Z" transform="translate(-253.612 -347.301)" fill="#605353"/>
          <path id="Tracé_3776" data-name="Tracé 3776" d="M433.455,388.7a7.762,7.762,0,0,0,15.524,0V368H433.454v20.7Z" transform="translate(-249.751 -347.301)" fill="#605353"/>
          <path id="Tracé_3777" data-name="Tracé 3777" d="M398.545,388.7a7.762,7.762,0,0,0,15.524,0V368H398.544v20.7Z" transform="translate(-245.89 -347.301)" fill="#605353"/>
          <rect id="Rectangle_29" data-name="Rectangle 29" width="51.748" height="103.495" fill="#605353"/>
        </g>
        <path id="Tracé_3778" data-name="Tracé 3778" d="M455.377,331.967a10.379,10.379,0,0,1-10.349,10.349H10.349A10.379,10.379,0,0,1,0,331.967V52.531A10.379,10.379,0,0,1,10.349,42.182H445.027a10.379,10.379,0,0,1,10.349,10.349V331.967Z" fill="#463836"/>
        <rect id="Rectangle_30" data-name="Rectangle 30" width="393.281" height="238.038" transform="translate(31.048 73.23)" fill="#6fc5d6"/>
        <path id="Tracé_3779" data-name="Tracé 3779" d="M363.786,467.888H115.4a7.762,7.762,0,1,1,0-15.524H363.787a7.762,7.762,0,1,1,0,15.524Z" transform="translate(-11.904 -45.362)" fill="#463836"/>
      </g>
    </g>
  </g>
</svg>
